PA1_Template.utf8
…
## [1] "steps"    "date"     "interval"

dim(ActivityData)

## [1] 17568     3

#2.Histogram of the total number of steps taken each day First, calculate the number of steps per day.

StepsPerDay <- ActivityData %>%
  filter(!is.na(steps)) %>%
  group_by(date) %>%
  summarize(StepsPerDay = sum(steps)) %>%
  print

## # A tibble: 53 x 2
##    date       StepsPerDay
##    <date>           <dbl>
##  1 2012-10-02         126
##  2 2012-10-03       11352
##  3 2012-10-04       12116
##  4 2012-10-05       13294
##  5 2012-10-06       15420
##  6 2012-10-07       11015
##  7 2012-10-09       12811
##  8 2012-10-10        9900
##  9 2012-10-11       10304
## 10 2012-10-12       17382
## # ... with 43 more rows
…
Create a histogram of the total number of steps per day in the imputed data set.

ImputedStepsPerDay <- ImputedDataSet %>%
  filter(!is.na(steps)) %>%
  group_by(date) %>%
  summarize(ImputedStepsPerDay = sum(steps)) %>%
  print

## # A tibble: 61 x 2
##    date       ImputedStepsPerDay
##    <date>                  <dbl>
##  1 2012-10-01             10766.
##  2 2012-10-02               126 
##  3 2012-10-03             11352 
##  4 2012-10-04             12116 
##  5 2012-10-05             13294 
##  6 2012-10-06             15420 
##  7 2012-10-07             11015 
##  8 2012-10-08             10766.
##  9 2012-10-09             12811 
## 10 2012-10-10              9900 
## # ... with 51 more rows
…
